[
{
  "model": "csgo.csgomap",
  "pk": 4,
  "fields": {
    "name": "Mirage",
    "short_code": "mrg",
    "version": ""
  }
},
{
  "model": "csgo.csgomap",
  "pk": 5,
  "fields": {
    "name": "Cobblestone",
    "short_code": "cbl",
    "version": ""
  }
},
{
  "model": "csgo.csgomap",
  "pk": 6,
  "fields": {
    "name": "Cache",
    "short_code": "cch",
    "version": ""
  }
},
{
  "model": "csgo.csgomap",
  "pk": 7,
  "fields": {
    "name": "Inferno",
    "short_code": "inf",
    "version": ""
  }
},
{
  "model": "csgo.csgomap",
  "pk": 8,
  "fields": {
    "name": "Nuke",
    "short_code": "nuke",
    "version": ""
  }
},
{
  "model": "csgo.csgomap",
  "pk": 9,
  "fields": {
    "name": "Overpass",
    "short_code": "ovp",
    "version": ""
  }
},
{
  "model": "csgo.csgomap",
  "pk": 10,
  "fields": {
    "name": "Train",
    "short_code": "trn",
    "version": ""
  }
},
{
  "model": "csgo.csgomap",
  "pk": 11,
  "fields": {
    "name": "Season",
    "short_code": null,
    "version": ""
  }
},
{
  "model": "csgo.csgomap",
  "pk": 12,
  "fields": {
    "name": "Dust2",
    "short_code": null,
    "version": ""
  }
},
{
  "model": "csgo.csgomap",
  "pk": 13,
  "fields": {
    "name": "Tuscan",
    "short_code": "tcn",
    "version": ""
  }
}
]
